11128052620__________405325325302.000000
11128052621__________413813813790.000000
11128052612__________418058058034.000000
11128052611__________398958958936.000000
11128052614__________428668668644.000000
11128052613__________411691691668.000000
11128052616__________420180180156.000000
11128052615__________447767767742.000000
11128052618__________403203203180.000000
11128052617__________424424424400.000000
11128052619__________386226226204.000000
11128052659__________394714714692.000000
11128052657__________458378378352.000000
11128052631__________443523523498.000000
11128052632__________398958958936.000000
11128052658__________377737737716.000000
11128052655__________398958958936.000000
11128052656__________424424424400.000000
11128052630__________422302302278.000000
11128052625__________384104104082.000000
11128052624__________426546546522.000000
11128052623__________356516516496.000000
11128052622__________430790790766.000000
11128052629__________365005004984.000000
11128052628__________443523523498.000000
11128052627__________392592592570.000000
11128052626__________394714714692.000000
11128052644__________426546546522.000000
11128052645__________466866866840.000000
11128052646__________464744744718.000000
11128052647__________456256256230.000000
11128052648__________362882882862.000000
11128052649__________464744744718.000000
11128052650__________458378378352.000000
11128052652__________377737737716.000000
11128052651__________409569569546.000000
11128052654__________420180180156.000000

11128052609__________445645645620.000000
